<?xml version="1.0" encoding="UTF-8"?>
<robot generator="Robot 4.1.2 (Python 3.10.0 on darwin)" generated="20211224 23:44:14.910" rpa="false" schemaversion="2">
<suite id="s1" name="Api Test Case" source="/Users/nilrakici/IdeaProjects/new/src/api_test_case.robot">
<test id="s1-t1" name="Scenario: API Test">
<kw name="Given I Set GET user service API endpoint">
<kw name="Create Session" library="RequestsLibrary">
<arg>mysession</arg>
<arg>${base_url}</arg>
<doc>Create Session: create a HTTP session to a server</doc>
<msg timestamp="20211224 23:44:15.087" level="INFO">Creating Session using : alias=mysession, url=https://gorest.co.in, headers={},                     cookies={}, auth=None, timeout=None, proxies=None, verify=False,                     debug=0 </msg>
<status status="PASS" starttime="20211224 23:44:15.086" endtime="20211224 23:44:15.087"/>
</kw>
<kw name="Set Global Variable" library="BuiltIn">
<arg>${session}</arg>
<arg>mysession</arg>
<doc>Makes a variable available globally in all tests and suites.</doc>
<msg timestamp="20211224 23:44:15.088" level="INFO">${session} = mysession</msg>
<status status="PASS" starttime="20211224 23:44:15.087" endtime="20211224 23:44:15.088"/>
</kw>
<status status="PASS" starttime="20211224 23:44:15.084" endtime="20211224 23:44:15.088"/>
</kw>
<kw name="When I Send a GET request">
<kw name="GET On Session" library="RequestsLibrary">
<var>${response}</var>
<arg>${session}</arg>
<arg>/public/v1/users</arg>
<doc>Sends a GET request on a previously created HTTP Session.</doc>
<msg timestamp="20211224 23:44:16.056" level="INFO">GET Request : url=https://gorest.co.in/public/v1/users 
 path_url=/public/v1/users 
 headers={'User-Agent': 'python-requests/2.26.0', 'Accept-Encoding': 'gzip, deflate', 'Accept': '*/*', 'Connection': 'keep-alive'} 
 body=None 
 </msg>
<msg timestamp="20211224 23:44:16.056" level="INFO">GET Response : url=https://gorest.co.in/public/v1/users 
 status=200, reason=OK 
 headers={'Server': 'nginx', 'Date': 'Fri, 24 Dec 2021 20:44:16 GMT', 'Content-Type': 'application/json; charset=utf-8', 'Transfer-Encoding': 'chunked', 'Connection': 'keep-alive', 'Vary': 'Accept-Encoding, Origin', 'X-Frame-Options': 'SAMEORIGIN', 'X-XSS-Protection': '0', 'X-Content-Type-Options': 'nosniff', 'X-Download-Options': 'noopen', 'X-Permitted-Cross-Domain-Policies': 'none', 'Referrer-Policy': 'strict-origin-when-cross-origin', 'ETag': 'W/"e33ed5dfe85277f5e33a832e8e7f1bef"', 'Cache-Control': 'max-age=0, private, must-revalidate', 'X-Request-Id': '6ec081d1-a9e2-4ed4-bff1-d2e093a39bbc', 'X-Runtime': '0.008831', 'Strict-Transport-Security': 'max-age=63072000; includeSubDomains', 'Content-Encoding': 'gzip'} 
 body={"meta":{"pagination":{"total":1828,"pages":92,"page":1,"limit":20,"links":{"previous":null,"current":"https://gorest.co.in/public/v1/users?page=1","next":"https://gorest.co.in/public/v1/users?page=2"}}},"data":[{"id":2304,"name":"Carlos Perez1","email":"carpe31@falso.com","gender":"male","status":"active"},{"id":2305,"name":"Carlos2 Perez","email":"carpe4@falso.com","gender":"male","status":"active"},{"id":2344,"name":"chand2","email":"chania@gmail.com","gender":"female","status":"active"},{"id":2362,"name":"Jiangtiezhu2","email":"Jiangtiezhu2@kd.com","gender":"male","status":"active"},{"id":58,"name":"Fr. Chanakya Ahuja","email":"ahuja_fr_chanakya@gleichner.org","gender":"male","status":"inactive"},{"id":59,"name":"Gautami Kaur DVM","email":"dvm_gautami_kaur@bashirian-reichel.biz","gender":"female","status":"inactive"},{"id":60,"name":"Bala Chattopadhyay","email":"chattopadhyay_bala@schuppe.info","gender":"female","status":"active"},{"id":61,"name":"Vrinda Shukla CPA","email":"cpa_shukla_vrinda@goodwin.co","gender":"male","status":"active"},{"id":62,"name":"Kamala Johar","email":"johar_kamala@bode.net","gender":"male","status":"inactive"},{"id":2062,"name":"Deborah Brakus","email":"Caterina43@gmail.com","gender":"male","status":"active"},{"id":64,"name":"Sanya Bandopadhyay","email":"sanya_bandopadhyay@cartwright.org","gender":"male","status":"inactive"},{"id":65,"name":"Gauraang Jain","email":"gauraang_jain@kuhn-quitzon.biz","gender":"male","status":"inactive"},{"id":67,"name":"Veda Arora CPA","email":"arora_veda_cpa@koelpin-treutel.co","gender":"male","status":"inactive"},{"id":68,"name":"Devagya Nair IV","email":"iv_nair_devagya@bayer.biz","gender":"male","status":"inactive"},{"id":69,"name":"Achalesvara Namboothiri","email":"namboothiri_achalesvara@fahey.name","gender":"female","status":"inactive"},{"id":70,"name":"Kailash Somayaji","email":"somayaji_kailash@feeney.biz","gender":"male","status":"active"},{"id":71,"name":"Dhyanesh Arora II","email":"arora_ii_dhyanesh@lindgren.name","gender":"male","status":"active"},{"id":72,"name":"Dipankar Embranthiri","email":"embranthiri_dipankar@aufderhar-quigley.com","gender":"female","status":"active"},{"id":73,"name":"Balachandra Pandey","email":"balachandra_pandey@moore.info","gender":"male","status":"inactive"},{"id":1728,"name":"Tanya","email":"1111oo@tut.by","gender":"female","status":"active"}]} 
 </msg>
<msg timestamp="20211224 23:44:16.057" level="INFO">/Library/Frameworks/Python.framework/Versions/3.10/lib/python3.10/site-packages/urllib3/connectionpool.py:1013: InsecureRequestWarning: Unverified HTTPS request is being made to host 'gorest.co.in'. Adding certificate verification is strongly advised. See: https://urllib3.readthedocs.io/en/1.26.x/advanced-usage.html#ssl-warnings
  warnings.warn(</msg>
<msg timestamp="20211224 23:44:16.057" level="INFO">${response} = &lt;Response [200]&gt;</msg>
<status status="PASS" starttime="20211224 23:44:15.088" endtime="20211224 23:44:16.057"/>
</kw>
<kw name="Convert To String" library="BuiltIn">
<var>${status}</var>
<arg>${response.status_code}</arg>
<doc>Converts the given item to a Unicode string.</doc>
<msg timestamp="20211224 23:44:16.060" level="INFO">${status} = 200</msg>
<status status="PASS" starttime="20211224 23:44:16.058" endtime="20211224 23:44:16.060"/>
</kw>
<kw name="Convert To String" library="BuiltIn">
<var>${body}</var>
<arg>${response.content}</arg>
<doc>Converts the given item to a Unicode string.</doc>
<msg timestamp="20211224 23:44:16.063" level="INFO">${body} = {"meta":{"pagination":{"total":1828,"pages":92,"page":1,"limit":20,"links":{"previous":null,"current":"https://gorest.co.in/public/v1/users?page=1","next":"https://gorest.co.in/public/v1/users?page=2"...</msg>
<status status="PASS" starttime="20211224 23:44:16.060" endtime="20211224 23:44:16.064"/>
</kw>
<kw name="Set Variable" library="BuiltIn">
<var>${json_response}</var>
<arg>${response.json()}</arg>
<doc>Returns the given values which can then be assigned to a variables.</doc>
<msg timestamp="20211224 23:44:16.066" level="INFO">${json_response} = {'meta': {'pagination': {'total': 1828, 'pages': 92, 'page': 1, 'limit': 20, 'links': {'previous': None, 'current': 'https://gorest.co.in/public/v1/users?page=1', 'next': 'https://gorest.co.in/public/...</msg>
<status status="PASS" starttime="20211224 23:44:16.064" endtime="20211224 23:44:16.067"/>
</kw>
<kw name="Get Value From Json" library="JSONLibrary">
<var>${total_data}</var>
<arg>${json_response}</arg>
<arg>meta.pagination.total</arg>
<doc>Get Value From JSON using JSONPath</doc>
<msg timestamp="20211224 23:44:16.109" level="INFO">${total_data} = [1828]</msg>
<status status="PASS" starttime="20211224 23:44:16.067" endtime="20211224 23:44:16.109"/>
</kw>
<kw name="Get Value From Json" library="JSONLibrary">
<var>${pages_data}</var>
<arg>${json_response}</arg>
<arg>meta.pagination.pages</arg>
<doc>Get Value From JSON using JSONPath</doc>
<msg timestamp="20211224 23:44:16.131" level="INFO">${pages_data} = [92]</msg>
<status status="PASS" starttime="20211224 23:44:16.109" endtime="20211224 23:44:16.131"/>
</kw>
<kw name="Get Value From Json" library="JSONLibrary">
<var>${page_data}</var>
<arg>${json_response}</arg>
<arg>meta.pagination.page</arg>
<doc>Get Value From JSON using JSONPath</doc>
<msg timestamp="20211224 23:44:16.150" level="INFO">${page_data} = [1]</msg>
<status status="PASS" starttime="20211224 23:44:16.131" endtime="20211224 23:44:16.150"/>
</kw>
<kw name="Get Value From Json" library="JSONLibrary">
<var>${limit_data}</var>
<arg>${json_response}</arg>
<arg>meta.pagination.limit</arg>
<doc>Get Value From JSON using JSONPath</doc>
<msg timestamp="20211224 23:44:16.168" level="INFO">${limit_data} = [20]</msg>
<status status="PASS" starttime="20211224 23:44:16.150" endtime="20211224 23:44:16.168"/>
</kw>
<kw name="Set Global Variable" library="BuiltIn">
<arg>${json_response}</arg>
<doc>Makes a variable available globally in all tests and suites.</doc>
<msg timestamp="20211224 23:44:16.169" level="INFO">${json_response} = {'meta': {'pagination': {'total': 1828, 'pages': 92, 'page': 1, 'limit': 20, 'links': {'previous': None, 'current': 'https://gorest.co.in/public/v1/users?page=1', 'next': 'https://gorest.co.in/public/...</msg>
<status status="PASS" starttime="20211224 23:44:16.168" endtime="20211224 23:44:16.169"/>
</kw>
<kw name="Set Global Variable" library="BuiltIn">
<arg>${total_data}</arg>
<doc>Makes a variable available globally in all tests and suites.</doc>
<msg timestamp="20211224 23:44:16.169" level="INFO">${total_data} = [1828]</msg>
<status status="PASS" starttime="20211224 23:44:16.169" endtime="20211224 23:44:16.169"/>
</kw>
<kw name="Set Global Variable" library="BuiltIn">
<arg>${pages_data}</arg>
<doc>Makes a variable available globally in all tests and suites.</doc>
<msg timestamp="20211224 23:44:16.169" level="INFO">${pages_data} = [92]</msg>
<status status="PASS" starttime="20211224 23:44:16.169" endtime="20211224 23:44:16.170"/>
</kw>
<kw name="Set Global Variable" library="BuiltIn">
<arg>${page_data}</arg>
<doc>Makes a variable available globally in all tests and suites.</doc>
<msg timestamp="20211224 23:44:16.170" level="INFO">${page_data} = [1]</msg>
<status status="PASS" starttime="20211224 23:44:16.170" endtime="20211224 23:44:16.170"/>
</kw>
<kw name="Set Global Variable" library="BuiltIn">
<arg>${limit_data}</arg>
<doc>Makes a variable available globally in all tests and suites.</doc>
<msg timestamp="20211224 23:44:16.170" level="INFO">${limit_data} = [20]</msg>
<status status="PASS" starttime="20211224 23:44:16.170" endtime="20211224 23:44:16.170"/>
</kw>
<kw name="Set Global Variable" library="BuiltIn">
<arg>${response}</arg>
<doc>Makes a variable available globally in all tests and suites.</doc>
<msg timestamp="20211224 23:44:16.171" level="INFO">${response} = &lt;Response [200]&gt;</msg>
<status status="PASS" starttime="20211224 23:44:16.170" endtime="20211224 23:44:16.171"/>
</kw>
<kw name="Set Global Variable" library="BuiltIn">
<arg>${status}</arg>
<doc>Makes a variable available globally in all tests and suites.</doc>
<msg timestamp="20211224 23:44:16.171" level="INFO">${status} = 200</msg>
<status status="PASS" starttime="20211224 23:44:16.171" endtime="20211224 23:44:16.171"/>
</kw>
<kw name="Set Global Variable" library="BuiltIn">
<arg>${body}</arg>
<doc>Makes a variable available globally in all tests and suites.</doc>
<msg timestamp="20211224 23:44:16.171" level="INFO">${body} = {"meta":{"pagination":{"total":1828,"pages":92,"page":1,"limit":20,"links":{"previous":null,"current":"https://gorest.co.in/public/v1/users?page=1","next":"https://gorest.co.in/public/v1/users?page=2"...</msg>
<status status="PASS" starttime="20211224 23:44:16.171" endtime="20211224 23:44:16.171"/>
</kw>
<status status="PASS" starttime="20211224 23:44:15.088" endtime="20211224 23:44:16.171"/>
</kw>
<kw name="Then Response should be valid">
<kw name="Should Not Be Equal" library="BuiltIn">
<arg>${json_response}</arg>
<arg>NULL</arg>
<doc>Fails if the given objects are equal.</doc>
<msg timestamp="20211224 23:44:16.172" level="INFO">Argument types are:
&lt;class 'dict'&gt;
&lt;type 'unicode'&gt;</msg>
<status status="PASS" starttime="20211224 23:44:16.172" endtime="20211224 23:44:16.172"/>
</kw>
<kw name="Should Be Equal" library="BuiltIn">
<arg>${status}</arg>
<arg>200</arg>
<doc>Fails if the given objects are unequal.</doc>
<status status="PASS" starttime="20211224 23:44:16.172" endtime="20211224 23:44:16.173"/>
</kw>
<kw name="Should Not Be Equal" library="BuiltIn">
<arg>${body}</arg>
<arg>NULL</arg>
<doc>Fails if the given objects are equal.</doc>
<status status="PASS" starttime="20211224 23:44:16.173" endtime="20211224 23:44:16.173"/>
</kw>
<kw name="Should Not Be Equal" library="BuiltIn">
<arg>${total_data}</arg>
<arg>NULL</arg>
<doc>Fails if the given objects are equal.</doc>
<msg timestamp="20211224 23:44:16.173" level="INFO">Argument types are:
&lt;class 'list'&gt;
&lt;type 'unicode'&gt;</msg>
<status status="PASS" starttime="20211224 23:44:16.173" endtime="20211224 23:44:16.173"/>
</kw>
<kw name="Should Not Be Equal" library="BuiltIn">
<arg>${pages_data}</arg>
<arg>NULL</arg>
<doc>Fails if the given objects are equal.</doc>
<msg timestamp="20211224 23:44:16.173" level="INFO">Argument types are:
&lt;class 'list'&gt;
&lt;type 'unicode'&gt;</msg>
<status status="PASS" starttime="20211224 23:44:16.173" endtime="20211224 23:44:16.173"/>
</kw>
<kw name="Should Not Be Equal" library="BuiltIn">
<arg>${page_data}</arg>
<arg>NULL</arg>
<doc>Fails if the given objects are equal.</doc>
<msg timestamp="20211224 23:44:16.174" level="INFO">Argument types are:
&lt;class 'list'&gt;
&lt;type 'unicode'&gt;</msg>
<status status="PASS" starttime="20211224 23:44:16.174" endtime="20211224 23:44:16.174"/>
</kw>
<kw name="Should Not Be Equal" library="BuiltIn">
<arg>${limit_data}</arg>
<arg>NULL</arg>
<doc>Fails if the given objects are equal.</doc>
<msg timestamp="20211224 23:44:16.174" level="INFO">Argument types are:
&lt;class 'list'&gt;
&lt;type 'unicode'&gt;</msg>
<status status="PASS" starttime="20211224 23:44:16.174" endtime="20211224 23:44:16.174"/>
</kw>
<status status="PASS" starttime="20211224 23:44:16.172" endtime="20211224 23:44:16.174"/>
</kw>
<status status="PASS" starttime="20211224 23:44:15.083" endtime="20211224 23:44:16.174"/>
</test>
<status status="PASS" starttime="20211224 23:44:14.913" endtime="20211224 23:44:16.175"/>
</suite>
<statistics>
<total>
<stat pass="1" fail="0" skip="0">All Tests</stat>
</total>
<tag>
</tag>
<suite>
<stat pass="1" fail="0" skip="0" id="s1" name="Api Test Case">Api Test Case</stat>
</suite>
</statistics>
<errors>
</errors>
</robot>
